data15_hi.00286711.physics_UPC.deriv.DAOD_HION4.r11155_p3745_p3819
data15_hi.00286717.physics_UPC.deriv.DAOD_HION4.r11155_p3745_p3819
data15_hi.00286748.physics_UPC.deriv.DAOD_HION4.r11155_p3745_p3819
data15_hi.00286767.physics_UPC.deriv.DAOD_HION4.r11155_p3745_p3819
data15_hi.00286834.physics_UPC.deriv.DAOD_HION4.r11155_p3745_p3819
data15_hi.00286854.physics_UPC.deriv.DAOD_HION4.r11155_p3745_p3819
data15_hi.00286908.physics_UPC.deriv.DAOD_HION4.r11155_p3745_p3819
data15_hi.00286967.physics_UPC.deriv.DAOD_HION4.r11155_p3745_p3819
data15_hi.00286990.physics_UPC.deriv.DAOD_HION4.r11155_p3745_p3819
data15_hi.00286995.physics_UPC.deriv.DAOD_HION4.r11155_p3745_p3819
data15_hi.00287038.physics_UPC.deriv.DAOD_HION4.r11155_p3745_p3819
data15_hi.00287044.physics_UPC.deriv.DAOD_HION4.r11155_p3745_p3819
data15_hi.00287068.physics_UPC.deriv.DAOD_HION4.r11155_p3745_p3819
data15_hi.00287222.physics_UPC.deriv.DAOD_HION4.r11155_p3745_p3819
data15_hi.00287224.physics_UPC.deriv.DAOD_HION4.r11155_p3745_p3819
data15_hi.00287259.physics_UPC.deriv.DAOD_HION4.r11155_p3745_p3819
data15_hi.00287270.physics_UPC.deriv.DAOD_HION4.r11155_p3745_p3819
data15_hi.00287281.physics_UPC.deriv.DAOD_HION4.r11155_p3745_p3819
data15_hi.00287321.physics_UPC.deriv.DAOD_HION4.r11155_p3745_p3819
data15_hi.00287330.physics_UPC.deriv.DAOD_HION4.r11155_p3745_p3819
data15_hi.00287334.physics_UPC.deriv.DAOD_HION4.r11155_p3745_p3819
data15_hi.00287378.physics_UPC.deriv.DAOD_HION4.r11155_p3745_p3819
data15_hi.00287380.physics_UPC.deriv.DAOD_HION4.r11155_p3745_p3819
data15_hi.00287382.physics_UPC.deriv.DAOD_HION4.r11155_p3745_p3819
data15_hi.00287560.physics_UPC.deriv.DAOD_HION4.r11155_p3745_p3819
data15_hi.00287594.physics_UPC.deriv.DAOD_HION4.r11155_p3745_p3819
data15_hi.00287632.physics_UPC.deriv.DAOD_HION4.r11155_p3745_p3819
data15_hi.00287706.physics_UPC.deriv.DAOD_HION4.r11155_p3745_p3819
data15_hi.00287728.physics_UPC.deriv.DAOD_HION4.r11155_p3745_p3819
data15_hi.00287827.physics_UPC.deriv.DAOD_HION4.r11155_p3745_p3819
data15_hi.00287843.physics_UPC.deriv.DAOD_HION4.r11155_p3745_p3819
data15_hi.00287866.physics_UPC.deriv.DAOD_HION4.r11155_p3745_p3819
data15_hi.00287924.physics_UPC.deriv.DAOD_HION4.r11155_p3745_p3819
data15_hi.00287931.physics_UPC.deriv.DAOD_HION4.r11155_p3745_p3819

